measurements/1MHz_3.csv

X,CH1,Start,Increment,
Sequence,Volt,-6.000000e-06,1.000000e-09
0,1.19e+01,
1,1.19e+01,
2,1.19e+01,
3,1.19e+01,
4,1.21e+01,
5,1.21e+01,
6,1.21e+01,
7,1.23e+01,
8,1.23e+01,
9,1.23e+01,
10,1.23e+01,
11,1.23e+01,
12,1.23e+01,
13,1.25e+01,
14,1.25e+01,
15,1.27e+01,
16,1.27e+01,
17,1.27e+01,
18,1.27e+01,
19,1.27e+01,
20,1.27e+01,
21,1.29e+01,
22,1.29e+01,
23,1.29e+01,
24,1.31e+01,
25,1.29e+01,
26,1.31e+01,
27,1.31e+01,
28,1.35e+01,
29,1.35e+01,
30,1.35e+01,
31,1.35e+01,
32,1.35e+01,
33,1.35e+01,
34,1.37e+01,
35,1.37e+01,
36,1.37e+01,
37,1.37e+01,
38,1.39e+01,
39,1.39e+01,
40,1.41e+01,
41,1.39e+01,
42,1.41e+01,
43,1.39e+01,
44,1.41e+01,
45,1.41e+01,
46,1.43e+01,
47,1.43e+01,
48,1.43e+01,
49,1.43e+01,
50,1.45e+01,
51,1.45e+01,
52,1.45e+01,
53,1.45e+01,
54,1.47e+01,
55,1.47e+01,
56,1.47e+01,
57,1.47e+01,
58,1.47e+01,
59,1.47e+01,
60,1.49e+01,
61,1.49e+01,
62,1.49e+01,
63,1.51e+01,
64,1.51e+01,
65,1.51e+01,
66,1.53e+01,
67,1.51e+01,
68,1.53e+01,
69,1.53e+01,
70,1.53e+01,
71,1.55e+01,
72,1.55e+01,
73,1.55e+01,
74,1.55e+01,
75,1.55e+01,
76,1.55e+01,
77,1.57e+01,
78,1.57e+01,
79,1.59e+01,
80,1.57e+01,
81,1.59e+01,
82,1.59e+01,
83,1.59e+01,
84,1.59e+01,
85,1.59e+01,
86,1.61e+01,
87,1.61e+01,
88,1.63e+01,
89,1.61e+01,
90,1.63e+01,
91,1.63e+01,
92,1.65e+01,
93,1.63e+01,
94,1.63e+01,
95,1.65e+01,
96,1.65e+01,
97,1.65e+01,
98,1.67e+01,
99,1.65e+01,
100,1.67e+01,
101,1.65e+01,
102,1.67e+01,
103,1.69e+01,
104,1.69e+01,
105,1.69e+01,
106,1.69e+01,
107,1.69e+01,
108,1.71e+01,
109,1.71e+01,
110,1.69e+01,
111,1.71e+01,
112,1.71e+01,
113,1.71e+01,
114,1.71e+01,
115,1.71e+01,
116,1.73e+01,
117,1.75e+01,
118,1.73e+01,
119,1.75e+01,
120,1.75e+01,
121,1.75e+01,
122,1.75e+01,
123,1.75e+01,
124,1.75e+01,
125,1.75e+01,
126,1.75e+01,
127,1.77e+01,
128,1.79e+01,
129,1.77e+01,
130,1.79e+01,
131,1.79e+01,
132,1.79e+01,
133,1.79e+01,
134,1.79e+01,
135,1.79e+01,
136,1.81e+01,
137,1.81e+01,
138,1.81e+01,
139,1.81e+01,
140,1.81e+01,
141,1.81e+01,
142,1.81e+01,
143,1.85e+01,
144,1.83e+01,
145,1.83e+01,
146,1.85e+01,
147,1.83e+01,
148,1.85e+01,
149,1.83e+01,
150,1.83e+01,
151,1.89e+01,
152,1.85e+01,
153,1.85e+01,
154,1.85e+01,
155,1.85e+01,
156,1.89e+01,
157,1.89e+01,
158,1.85e+01,
159,1.91e+01,
160,1.89e+01,
161,1.89e+01,
162,1.91e+01,
163,1.89e+01,
164,1.91e+01,
165,1.89e+01,
166,1.91e+01,
167,1.91e+01,
168,1.93e+01,
169,1.91e+01,
170,1.91e+01,
171,1.89e+01,
172,1.93e+01,
173,1.93e+01,
174,1.93e+01,
175,1.95e+01,
176,1.93e+01,
177,1.93e+01,
178,1.95e+01,
179,1.93e+01,
180,1.95e+01,
181,1.95e+01,
182,1.95e+01,
183,1.97e+01,
184,1.97e+01,
185,1.95e+01,
186,1.97e+01,
187,1.93e+01,
188,1.95e+01,
189,1.97e+01,
190,1.95e+01,
191,1.97e+01,
192,1.97e+01,
193,1.97e+01,
194,1.97e+01,
195,1.97e+01,
196,1.97e+01,
197,1.97e+01,
198,1.97e+01,
199,1.97e+01,
200,1.99e+01,
201,1.97e+01,
202,1.99e+01,
203,1.97e+01,
204,1.97e+01,
205,1.99e+01,
206,1.97e+01,
207,1.99e+01,
208,1.99e+01,
209,1.99e+01,
210,2.01e+01,
211,2.01e+01,
212,2.01e+01,
213,1.99e+01,
214,1.99e+01,
215,2.01e+01,
216,2.01e+01,
217,2.01e+01,
218,2.01e+01,
219,1.99e+01,
220,2.01e+01,
221,2.01e+01,
222,1.99e+01,
223,2.01e+01,
224,2.01e+01,
225,2.01e+01,
226,2.01e+01,
227,2.01e+01,
228,2.01e+01,
229,2.03e+01,
230,2.01e+01,
231,2.03e+01,
232,2.03e+01,
233,2.01e+01,
234,2.03e+01,
235,2.01e+01,
236,2.03e+01,
237,2.03e+01,
238,2.01e+01,
239,2.03e+01,
240,2.01e+01,
241,2.01e+01,
242,2.03e+01,
243,2.03e+01,
244,2.03e+01,
245,2.03e+01,
246,2.01e+01,
247,2.03e+01,
248,2.03e+01,
249,2.03e+01,
250,2.03e+01,
251,2.01e+01,
252,2.03e+01,
253,2.03e+01,
254,2.03e+01,
255,2.03e+01,
256,2.03e+01,
257,2.03e+01,
258,2.03e+01,
259,2.03e+01,
260,2.03e+01,
261,2.03e+01,
262,2.03e+01,
263,2.03e+01,
264,2.05e+01,
265,2.03e+01,
266,2.03e+01,
267,2.01e+01,
268,2.01e+01,
269,2.03e+01,
270,2.01e+01,
271,2.03e+01,
272,2.03e+01,
273,2.03e+01,
274,2.03e+01,
275,2.01e+01,
276,2.03e+01,
277,2.03e+01,
278,2.01e+01,
279,2.03e+01,
280,2.01e+01,
281,2.03e+01,
282,2.01e+01,
283,2.01e+01,
284,2.01e+01,
285,2.01e+01,
286,2.01e+01,
287,2.03e+01,
288,2.01e+01,
289,2.01e+01,
290,2.01e+01,
291,2.01e+01,
292,2.01e+01,
293,2.01e+01,
294,2.01e+01,
295,2.01e+01,
296,2.01e+01,
297,1.99e+01,
298,1.99e+01,
299,1.99e+01,
300,1.99e+01,
301,1.99e+01,
302,1.99e+01,
303,2.01e+01,
304,1.99e+01,
305,1.99e+01,
306,1.99e+01,
307,1.99e+01,
308,1.99e+01,
309,1.99e+01,
310,1.97e+01,
311,1.97e+01,
312,1.97e+01,
313,1.97e+01,
314,1.97e+01,
315,1.97e+01,
316,1.97e+01,
317,1.97e+01,
318,1.95e+01,
319,1.97e+01,
320,1.97e+01,
321,1.95e+01,
322,1.97e+01,
323,1.97e+01,
324,1.95e+01,
325,1.97e+01,
326,1.95e+01,
327,1.95e+01,
328,1.95e+01,
329,1.95e+01,
330,1.95e+01,
331,1.93e+01,
332,1.95e+01,
333,1.95e+01,
334,1.91e+01,
335,1.93e+01,
336,1.93e+01,
337,1.93e+01,
338,1.93e+01,
339,1.91e+01,
340,1.91e+01,
341,1.91e+01,
342,1.91e+01,
343,1.91e+01,
344,1.93e+01,
345,1.89e+01,
346,1.91e+01,
347,1.89e+01,
348,1.89e+01,
349,1.89e+01,
350,1.89e+01,
351,1.89e+01,
352,1.85e+01,
353,1.89e+01,
354,1.89e+01,
355,1.85e+01,
356,1.85e+01,
357,1.85e+01,
358,1.85e+01,
359,1.85e+01,
360,1.85e+01,
361,1.83e+01,
362,1.85e+01,
363,1.83e+01,
364,1.83e+01,
365,1.83e+01,
366,1.81e+01,
367,1.83e+01,
368,1.81e+01,
369,1.81e+01,
370,1.81e+01,
371,1.81e+01,
372,1.81e+01,
373,1.81e+01,
374,1.79e+01,
375,1.79e+01,
376,1.81e+01,
377,1.77e+01,
378,1.79e+01,
379,1.77e+01,
380,1.77e+01,
381,1.77e+01,
382,1.75e+01,
383,1.77e+01,
384,1.77e+01,
385,1.75e+01,
386,1.77e+01,
387,1.75e+01,
388,1.75e+01,
389,1.75e+01,
390,1.75e+01,
391,1.75e+01,
392,1.75e+01,
393,1.73e+01,
394,1.73e+01,
395,1.71e+01,
396,1.71e+01,
397,1.71e+01,
398,1.71e+01,
399,1.71e+01,
400,1.71e+01,
401,1.69e+01,
402,1.69e+01,
403,1.69e+01,
404,1.69e+01,
405,1.69e+01,
406,1.69e+01,
407,1.69e+01,
408,1.69e+01,
409,1.67e+01,
410,1.65e+01,
411,1.65e+01,
412,1.65e+01,
413,1.65e+01,
414,1.65e+01,
415,1.65e+01,
416,1.65e+01,
417,1.63e+01,
418,1.63e+01,
419,1.63e+01,
420,1.63e+01,
421,1.63e+01,
422,1.61e+01,
423,1.61e+01,
424,1.61e+01,
425,1.59e+01,
426,1.61e+01,
427,1.59e+01,
428,1.59e+01,
429,1.59e+01,
430,1.57e+01,
431,1.57e+01,
432,1.57e+01,
433,1.57e+01,
434,1.55e+01,
435,1.55e+01,
436,1.55e+01,
437,1.55e+01,
438,1.55e+01,
439,1.55e+01,
440,1.55e+01,
441,1.53e+01,
442,1.53e+01,
443,1.51e+01,
444,1.53e+01,
445,1.51e+01,
446,1.51e+01,
447,1.51e+01,
448,1.49e+01,
449,1.49e+01,
450,1.49e+01,
451,1.47e+01,
452,1.47e+01,
453,1.47e+01,
454,1.47e+01,
455,1.47e+01,
456,1.47e+01,
457,1.45e+01,
458,1.45e+01,
459,1.45e+01,
460,1.45e+01,
461,1.45e+01,
462,1.43e+01,
463,1.43e+01,
464,1.43e+01,
465,1.43e+01,
466,1.41e+01,
467,1.41e+01,
468,1.41e+01,
469,1.41e+01,
470,1.41e+01,
471,1.39e+01,
472,1.39e+01,
473,1.37e+01,
474,1.37e+01,
475,1.37e+01,
476,1.37e+01,
477,1.37e+01,
478,1.35e+01,
479,1.35e+01,
480,1.35e+01,
481,1.31e+01,
482,1.35e+01,
483,1.31e+01,
484,1.31e+01,
485,1.31e+01,
486,1.31e+01,
487,1.29e+01,
488,1.29e+01,
489,1.29e+01,
490,1.27e+01,
491,1.27e+01,
492,1.27e+01,
493,1.27e+01,
494,1.25e+01,
495,1.25e+01,
496,1.25e+01,
497,1.25e+01,
498,1.23e+01,
499,1.23e+01,
500,1.23e+01,
501,1.23e+01,
502,1.23e+01,
503,1.23e+01,
504,1.23e+01,
505,1.21e+01,
506,1.21e+01,
507,1.19e+01,
508,1.19e+01,
509,1.19e+01,
510,1.17e+01,
511,1.19e+01,
512,1.17e+01,
513,1.15e+01,
514,1.17e+01,
515,1.15e+01,
516,1.15e+01,
517,1.13e+01,
518,1.15e+01,
519,1.13e+01,
520,1.15e+01,
521,1.13e+01,
522,1.13e+01,
523,1.11e+01,
524,1.11e+01,
525,1.11e+01,
526,1.11e+01,
527,1.11e+01,
528,1.09e+01,
529,1.09e+01,
530,1.09e+01,
531,1.07e+01,
532,1.07e+01,
533,1.07e+01,
534,1.07e+01,
535,1.07e+01,
536,1.07e+01,
537,1.05e+01,
538,1.05e+01,
539,1.03e+01,
540,1.03e+01,
541,1.03e+01,
542,1.03e+01,
543,1.03e+01,
544,1.03e+01,
545,1.01e+01,
546,1.01e+01,
547,1.01e+01,
548,1.01e+01,
549,9.90e+00,
550,1.01e+01,
551,9.90e+00,
552,9.90e+00,
553,9.70e+00,
554,9.90e+00,
555,9.70e+00,
556,9.70e+00,
557,9.50e+00,
558,9.50e+00,
559,9.50e+00,
560,9.50e+00,
561,9.30e+00,
562,9.30e+00,
563,9.30e+00,
564,9.30e+00,
565,9.10e+00,
566,9.30e+00,
567,9.30e+00,
568,9.30e+00,
569,9.10e+00,
570,8.90e+00,
571,9.10e+00,
572,8.90e+00,
573,8.90e+00,
574,8.90e+00,
575,8.90e+00,
576,8.70e+00,
577,8.70e+00,
578,8.70e+00,
579,8.50e+00,
580,8.50e+00,
581,8.30e+00,
582,8.50e+00,
583,8.50e+00,
584,8.50e+00,
585,8.30e+00,
586,8.30e+00,
587,8.30e+00,
588,8.30e+00,
589,7.90e+00,
590,7.90e+00,
591,7.90e+00,
592,7.90e+00,
593,7.90e+00,
594,7.90e+00,
595,7.70e+00,
596,7.70e+00,
597,7.50e+00,
598,7.70e+00,
599,7.70e+00,
600,7.70e+00,
601,7.50e+00,
602,7.50e+00,
603,7.30e+00,
604,7.30e+00,
605,7.30e+00,
606,7.30e+00,
607,7.30e+00,
608,7.10e+00,
609,7.10e+00,
610,7.10e+00,
611,7.10e+00,
612,7.10e+00,
613,7.10e+00,
614,7.10e+00,
615,7.10e+00,
616,7.10e+00,
617,6.90e+00,
618,6.90e+00,
619,6.70e+00,
620,6.70e+00,
621,6.70e+00,
622,6.70e+00,
623,6.70e+00,
624,6.50e+00,
625,6.50e+00,
626,6.70e+00,
627,6.50e+00,
628,6.50e+00,
629,6.50e+00,
630,6.50e+00,
631,6.30e+00,
632,6.50e+00,
633,6.30e+00,
634,6.30e+00,
635,6.10e+00,
636,6.30e+00,
637,6.10e+00,
638,6.10e+00,
639,6.10e+00,
640,6.10e+00,
641,5.90e+00,
642,6.10e+00,
643,6.10e+00,
644,6.10e+00,
645,5.90e+00,
646,6.10e+00,
647,5.90e+00,
648,5.90e+00,
649,5.90e+00,
650,5.90e+00,
651,5.70e+00,
652,5.70e+00,
653,5.70e+00,
654,5.70e+00,
655,5.70e+00,
656,5.70e+00,
657,5.50e+00,
658,5.70e+00,
659,5.70e+00,
660,5.50e+00,
661,5.30e+00,
662,5.50e+00,
663,5.50e+00,
664,5.50e+00,
665,5.30e+00,
666,5.30e+00,
667,5.30e+00,
668,5.30e+00,
669,5.10e+00,
670,5.30e+00,
671,5.10e+00,
672,5.10e+00,
673,5.10e+00,
674,5.30e+00,
675,5.10e+00,
676,5.10e+00,
677,5.10e+00,
678,5.10e+00,
679,5.10e+00,
680,5.10e+00,
681,4.90e+00,
682,4.90e+00,
683,4.90e+00,
684,5.10e+00,
685,4.90e+00,
686,4.90e+00,
687,5.10e+00,
688,4.90e+00,
689,4.70e+00,
690,4.90e+00,
691,4.70e+00,
692,4.70e+00,
693,4.70e+00,
694,4.70e+00,
695,4.70e+00,
696,4.70e+00,
697,4.70e+00,
698,4.50e+00,
699,4.50e+00,
700,4.70e+00,
701,4.50e+00,
702,4.50e+00,
703,4.50e+00,
704,4.50e+00,
705,4.30e+00,
706,4.50e+00,
707,4.50e+00,
708,4.50e+00,
709,4.30e+00,
710,4.50e+00,
711,4.50e+00,
712,4.50e+00,
713,4.30e+00,
714,4.30e+00,
715,4.30e+00,
716,4.30e+00,
717,4.10e+00,
718,4.30e+00,
719,4.30e+00,
720,4.30e+00,
721,4.30e+00,
722,4.30e+00,
723,4.30e+00,
724,4.30e+00,
725,4.10e+00,
726,4.50e+00,
727,4.30e+00,
728,4.30e+00,
729,4.10e+00,
730,4.10e+00,
731,4.30e+00,
732,4.30e+00,
733,4.10e+00,
734,4.30e+00,
735,4.10e+00,
736,4.10e+00,
737,4.10e+00,
738,4.30e+00,
739,4.10e+00,
740,4.10e+00,
741,4.10e+00,
742,4.30e+00,
743,4.10e+00,
744,4.10e+00,
745,4.10e+00,
746,4.10e+00,
747,4.10e+00,
748,4.10e+00,
749,4.10e+00,
750,4.10e+00,
751,4.10e+00,
752,4.10e+00,
753,4.10e+00,
754,4.10e+00,
755,4.10e+00,
756,4.10e+00,
757,4.10e+00,
758,4.10e+00,
759,4.10e+00,
760,4.10e+00,
761,4.10e+00,
762,4.10e+00,
763,4.10e+00,
764,4.10e+00,
765,4.10e+00,
766,4.10e+00,
767,4.10e+00,
768,4.10e+00,
769,4.10e+00,
770,4.30e+00,
771,4.10e+00,
772,4.10e+00,
773,4.10e+00,
774,4.10e+00,
775,4.10e+00,
776,4.30e+00,
777,4.10e+00,
778,4.30e+00,
779,4.30e+00,
780,4.10e+00,
781,4.10e+00,
782,4.10e+00,
783,4.10e+00,
784,4.30e+00,
785,4.10e+00,
786,4.30e+00,
787,4.10e+00,
788,4.30e+00,
789,4.10e+00,
790,4.30e+00,
791,4.10e+00,
792,4.30e+00,
793,4.30e+00,
794,4.30e+00,
795,4.30e+00,
796,4.30e+00,
797,4.30e+00,
798,4.30e+00,
799,4.30e+00,
800,4.30e+00,
801,4.30e+00,
802,4.50e+00,
803,4.50e+00,
804,4.50e+00,
805,4.30e+00,
806,4.50e+00,
807,4.50e+00,
808,4.70e+00,
809,4.50e+00,
810,4.50e+00,
811,4.50e+00,
812,4.50e+00,
813,4.50e+00,
814,4.70e+00,
815,4.70e+00,
816,4.70e+00,
817,4.70e+00,
818,4.50e+00,
819,4.70e+00,
820,4.70e+00,
821,4.70e+00,
822,4.90e+00,
823,4.70e+00,
824,4.90e+00,
825,4.70e+00,
826,4.90e+00,
827,4.90e+00,
828,4.90e+00,
829,4.90e+00,
830,4.90e+00,
831,4.90e+00,
832,4.90e+00,
833,4.90e+00,
834,5.10e+00,
835,5.10e+00,
836,5.10e+00,
837,5.10e+00,
838,5.10e+00,
839,5.10e+00,
840,5.30e+00,
841,5.10e+00,
842,5.30e+00,
843,5.30e+00,
844,5.30e+00,
845,5.30e+00,
846,5.30e+00,
847,5.30e+00,
848,5.30e+00,
849,5.30e+00,
850,5.50e+00,
851,5.50e+00,
852,5.50e+00,
853,5.30e+00,
854,5.70e+00,
855,5.50e+00,
856,5.70e+00,
857,5.70e+00,
858,5.70e+00,
859,5.70e+00,
860,5.70e+00,
861,5.70e+00,
862,5.70e+00,
863,5.90e+00,
864,5.90e+00,
865,5.70e+00,
866,5.90e+00,
867,5.90e+00,
868,6.10e+00,
869,5.90e+00,
870,6.10e+00,
871,6.10e+00,
872,6.10e+00,
873,6.10e+00,
874,6.10e+00,
875,6.10e+00,
876,6.10e+00,
877,6.10e+00,
878,6.10e+00,
879,6.30e+00,
880,6.30e+00,
881,6.30e+00,
882,6.50e+00,
883,6.50e+00,
884,6.50e+00,
885,6.50e+00,
886,6.50e+00,
887,6.50e+00,
888,6.70e+00,
889,6.50e+00,
890,6.70e+00,
891,6.70e+00,
892,6.70e+00,
893,6.70e+00,
894,6.70e+00,
895,6.90e+00,
896,6.90e+00,
897,6.90e+00,
898,7.10e+00,
899,7.10e+00,
900,7.10e+00,
901,7.10e+00,
902,7.10e+00,
903,7.30e+00,
904,7.30e+00,
905,7.30e+00,
906,7.30e+00,
907,7.30e+00,
908,7.30e+00,
909,7.50e+00,
910,7.30e+00,
911,7.50e+00,
912,7.50e+00,
913,7.50e+00,
914,7.70e+00,
915,7.70e+00,
916,7.70e+00,
917,7.70e+00,
918,7.90e+00,
919,7.90e+00,
920,7.90e+00,
921,7.90e+00,
922,7.90e+00,
923,8.30e+00,
924,8.30e+00,
925,8.30e+00,
926,8.30e+00,
927,8.30e+00,
928,8.30e+00,
929,8.50e+00,
930,8.50e+00,
931,8.50e+00,
932,8.70e+00,
933,8.70e+00,
934,8.70e+00,
935,8.70e+00,
936,8.90e+00,
937,8.70e+00,
938,8.90e+00,
939,8.90e+00,
940,8.90e+00,
941,8.90e+00,
942,9.10e+00,
943,9.10e+00,
944,9.30e+00,
945,9.10e+00,
946,9.30e+00,
947,9.30e+00,
948,9.30e+00,
949,9.30e+00,
950,9.30e+00,
951,9.50e+00,
952,9.50e+00,
953,9.50e+00,
954,9.70e+00,
955,9.70e+00,
956,9.70e+00,
957,9.70e+00,
958,9.70e+00,
959,9.90e+00,
960,9.90e+00,
961,9.90e+00,
962,9.90e+00,
963,9.90e+00,
964,1.01e+01,
965,1.01e+01,
966,1.01e+01,
967,1.03e+01,
968,1.03e+01,
969,1.03e+01,
970,1.05e+01,
971,1.03e+01,
972,1.03e+01,
973,1.05e+01,
974,1.05e+01,
975,1.07e+01,
976,1.07e+01,
977,1.07e+01,
978,1.07e+01,
979,1.07e+01,
980,1.09e+01,
981,1.09e+01,
982,1.11e+01,
983,1.11e+01,
984,1.13e+01,
985,1.11e+01,
986,1.11e+01,
987,1.11e+01,
988,1.13e+01,
989,1.13e+01,
990,1.13e+01,
991,1.13e+01,
992,1.15e+01,
993,1.13e+01,
994,1.15e+01,
995,1.15e+01,
996,1.17e+01,
997,1.17e+01,
998,1.17e+01,
999,1.19e+01,
1000,1.19e+01,
1001,1.19e+01,
1002,1.19e+01,
1003,1.19e+01,
1004,1.19e+01,
1005,1.21e+01,
1006,1.19e+01,
1007,1.23e+01,
1008,1.23e+01,
1009,1.23e+01,
1010,1.23e+01,
1011,1.23e+01,
1012,1.23e+01,
1013,1.23e+01,
1014,1.25e+01,
1015,1.25e+01,
1016,1.27e+01,
1017,1.27e+01,
1018,1.27e+01,
1019,1.27e+01,
1020,1.27e+01,
1021,1.29e+01,
1022,1.29e+01,
1023,1.31e+01,
1024,1.31e+01,
1025,1.31e+01,
1026,1.31e+01,
1027,1.31e+01,
1028,1.35e+01,
1029,1.35e+01,
1030,1.35e+01,
1031,1.35e+01,
1032,1.37e+01,
1033,1.37e+01,
1034,1.37e+01,
1035,1.37e+01,
1036,1.37e+01,
1037,1.37e+01,
1038,1.39e+01,
1039,1.41e+01,
1040,1.39e+01,
1041,1.39e+01,
1042,1.41e+01,
1043,1.41e+01,
1044,1.41e+01,
1045,1.43e+01,
1046,1.43e+01,
1047,1.43e+01,
1048,1.45e+01,
1049,1.45e+01,
1050,1.43e+01,
1051,1.45e+01,
1052,1.45e+01,
1053,1.47e+01,
1054,1.47e+01,
1055,1.47e+01,
1056,1.47e+01,
1057,1.47e+01,
1058,1.49e+01,
1059,1.49e+01,
1060,1.49e+01,
1061,1.49e+01,
1062,1.49e+01,
1063,1.51e+01,
1064,1.53e+01,
1065,1.51e+01,
1066,1.51e+01,
1067,1.51e+01,
1068,1.53e+01,
1069,1.53e+01,
1070,1.53e+01,
1071,1.55e+01,
1072,1.55e+01,
1073,1.55e+01,
1074,1.55e+01,
1075,1.55e+01,
1076,1.57e+01,
1077,1.57e+01,
1078,1.57e+01,
1079,1.57e+01,
1080,1.59e+01,
1081,1.57e+01,
1082,1.59e+01,
1083,1.59e+01,
1084,1.59e+01,
1085,1.61e+01,
1086,1.59e+01,
1087,1.63e+01,
1088,1.61e+01,
1089,1.63e+01,
1090,1.63e+01,
1091,1.63e+01,
1092,1.63e+01,
1093,1.63e+01,
1094,1.65e+01,
1095,1.65e+01,
1096,1.67e+01,
1097,1.65e+01,
1098,1.65e+01,
1099,1.65e+01,
1100,1.67e+01,
1101,1.67e+01,
1102,1.67e+01,
1103,1.69e+01,
1104,1.69e+01,
1105,1.67e+01,
1106,1.69e+01,
1107,1.69e+01,
1108,1.69e+01,
1109,1.71e+01,
1110,1.71e+01,
1111,1.71e+01,
1112,1.73e+01,
1113,1.71e+01,
1114,1.73e+01,
1115,1.71e+01,
1116,1.73e+01,
1117,1.73e+01,
1118,1.73e+01,
1119,1.75e+01,
1120,1.73e+01,
1121,1.75e+01,
1122,1.75e+01,
1123,1.75e+01,
1124,1.75e+01,
1125,1.77e+01,
1126,1.77e+01,
1127,1.77e+01,
1128,1.79e+01,
1129,1.77e+01,
1130,1.77e+01,
1131,1.77e+01,
1132,1.79e+01,
1133,1.79e+01,
1134,1.79e+01,
1135,1.81e+01,
1136,1.79e+01,
1137,1.81e+01,
1138,1.81e+01,
1139,1.81e+01,
1140,1.81e+01,
1141,1.83e+01,
1142,1.83e+01,
1143,1.83e+01,
1144,1.83e+01,
1145,1.83e+01,
1146,1.83e+01,
1147,1.83e+01,
1148,1.85e+01,
1149,1.85e+01,
1150,1.85e+01,
1151,1.85e+01,
1152,1.85e+01,
1153,1.85e+01,
1154,1.85e+01,
1155,1.85e+01,
1156,1.89e+01,
1157,1.89e+01,
1158,1.89e+01,
1159,1.91e+01,
1160,1.91e+01,
1161,1.89e+01,
1162,1.89e+01,
1163,1.89e+01,
1164,1.91e+01,
1165,1.91e+01,
1166,1.89e+01,
1167,1.91e+01,
1168,1.91e+01,
1169,1.91e+01,
1170,1.93e+01,
1171,1.91e+01,
1172,1.93e+01,
1173,1.93e+01,
1174,1.93e+01,
1175,1.95e+01,
1176,1.95e+01,
1177,1.93e+01,
1178,1.95e+01,
1179,1.93e+01,
1180,1.95e+01,
1181,1.95e+01,
1182,1.95e+01,
1183,1.97e+01,
1184,1.95e+01,
1185,1.97e+01,
1186,1.97e+01,
1187,1.95e+01,
1188,1.95e+01,
1189,1.97e+01,
1190,1.97e+01,
1191,1.97e+01,
1192,1.97e+01,
1193,1.97e+01,
1194,1.97e+01,
1195,1.97e+01,
1196,1.97e+01,
1197,1.97e+01,
1198,1.97e+01,
1199,1.99e+01,
1200,1.99e+01,
1201,1.97e+01,
1202,1.99e+01,
1203,1.97e+01,
1204,1.99e+01,
1205,1.99e+01,
1206,1.99e+01,
1207,2.01e+01,
1208,2.01e+01,
1209,1.99e+01,
1210,2.01e+01,
1211,1.97e+01,
1212,2.01e+01,
1213,1.99e+01,
1214,1.99e+01,
1215,2.01e+01,
1216,2.01e+01,
1217,1.99e+01,
1218,2.01e+01,
1219,2.01e+01,
1220,2.01e+01,
1221,2.01e+01,
1222,2.01e+01,
1223,2.01e+01,
1224,2.03e+01,
1225,2.01e+01,
1226,2.03e+01,
1227,2.01e+01,
1228,2.01e+01,
1229,2.01e+01,
1230,2.01e+01,
1231,2.03e+01,
1232,2.03e+01,
1233,2.01e+01,
1234,2.01e+01,
1235,2.01e+01,
1236,2.03e+01,
1237,2.03e+01,
1238,2.01e+01,
1239,2.03e+01,
1240,2.03e+01,
1241,2.03e+01,
1242,2.03e+01,
1243,2.01e+01,
1244,2.03e+01,
1245,2.03e+01,
1246,2.01e+01,
1247,2.05e+01,
1248,2.03e+01,
1249,2.03e+01,
1250,2.03e+01,
1251,2.03e+01,
1252,2.03e+01,
1253,2.03e+01,
1254,2.03e+01,
1255,2.03e+01,
1256,2.05e+01,
1257,2.03e+01,
1258,2.03e+01,
1259,2.01e+01,
1260,2.03e+01,
1261,2.03e+01,
1262,2.01e+01,
1263,2.03e+01,
1264,2.03e+01,
1265,2.03e+01,
1266,2.03e+01,
1267,2.01e+01,
1268,2.03e+01,
1269,2.03e+01,
1270,2.03e+01,
1271,2.03e+01,
1272,2.03e+01,
1273,2.03e+01,
1274,2.03e+01,
1275,2.01e+01,
1276,2.03e+01,
1277,2.03e+01,
1278,2.01e+01,
1279,2.03e+01,
1280,2.03e+01,
1281,2.03e+01,
1282,2.03e+01,
1283,2.01e+01,
1284,2.03e+01,
1285,2.01e+01,
1286,2.01e+01,
1287,2.03e+01,
1288,2.03e+01,
1289,2.01e+01,
1290,2.01e+01,
1291,1.99e+01,
1292,2.01e+01,
1293,2.01e+01,
1294,1.99e+01,
1295,2.01e+01,
1296,2.01e+01,
1297,1.99e+01,
1298,2.01e+01,
1299,1.99e+01,
1300,1.99e+01,
1301,1.99e+01,
1302,1.99e+01,
1303,1.99e+01,
1304,1.99e+01,
1305,1.99e+01,
1306,1.99e+01,
1307,1.97e+01,
1308,1.97e+01,
1309,1.97e+01,
1310,1.97e+01,
1311,1.99e+01,
1312,1.97e+01,
1313,1.97e+01,
1314,1.97e+01,
1315,1.97e+01,
1316,1.97e+01,
1317,1.97e+01,
1318,1.97e+01,
1319,1.97e+01,
1320,1.97e+01,
1321,1.97e+01,
1322,1.97e+01,
1323,1.95e+01,
1324,1.95e+01,
1325,1.95e+01,
1326,1.93e+01,
1327,1.95e+01,
1328,1.95e+01,
1329,1.95e+01,
1330,1.95e+01,
1331,1.95e+01,
1332,1.93e+01,
1333,1.93e+01,
1334,1.93e+01,
1335,1.93e+01,
1336,1.93e+01,
1337,1.93e+01,
1338,1.93e+01,
1339,1.91e+01,
1340,1.91e+01,
1341,1.91e+01,
1342,1.89e+01,
1343,1.91e+01,
1344,1.91e+01,
1345,1.91e+01,
1346,1.91e+01,
1347,1.89e+01,
1348,1.91e+01,
1349,1.89e+01,
1350,1.89e+01,
1351,1.89e+01,
1352,1.89e+01,
1353,1.89e+01,
1354,1.89e+01,
1355,1.85e+01,
1356,1.85e+01,
1357,1.85e+01,
1358,1.85e+01,
1359,1.85e+01,
1360,1.85e+01,
1361,1.83e+01,
1362,1.85e+01,
1363,1.83e+01,
1364,1.83e+01,
1365,1.83e+01,
1366,1.83e+01,
1367,1.83e+01,
1368,1.83e+01,
1369,1.81e+01,
1370,1.83e+01,
1371,1.81e+01,
1372,1.81e+01,
1373,1.81e+01,
1374,1.79e+01,
1375,1.81e+01,
1376,1.79e+01,
1377,1.79e+01,
1378,1.79e+01,
1379,1.77e+01,
1380,1.79e+01,
1381,1.77e+01,
1382,1.77e+01,
1383,1.77e+01,
1384,1.75e+01,
1385,1.77e+01,
1386,1.75e+01,
1387,1.75e+01,
1388,1.75e+01,
1389,1.75e+01,
1390,1.75e+01,
1391,1.75e+01,
1392,1.73e+01,
1393,1.73e+01,
1394,1.75e+01,
1395,1.73e+01,
1396,1.73e+01,
1397,1.73e+01,
1398,1.71e+01,
1399,1.71e+01,
1400,1.73e+01,
1401,1.71e+01,
1402,1.71e+01,
